CDC Data Analysis Exercise – LiangLai Data Analysis Portfolio
…
Exploratory Analysis

PLACES is a county-level, wide-format dataset. The exploratory analyses below summarize the distribution of the key categorical variable and the marginal distributions of the selected continuous measures.

# number of counties by state
cdc %>%
  count(state, sort = TRUE) %>%
  mutate(pct = n / sum(n))

# A tibble: 49 × 3
   state     n    pct
   <chr> <int>  <dbl>
 1 TX      253 0.0856
 2 GA      159 0.0538
 3 VA      133 0.0450
 4 MO      115 0.0389
 5 KS      105 0.0355
 6 IL      102 0.0345
 7 NC      100 0.0338
 8 IA       99 0.0335
 9 TN       95 0.0321
10 NE       93 0.0315
# ℹ 39 more rows
…
Reproducing exploratory analysis with new synthetic data

# Counties per state
cdc_synth %>%
  count(state, sort = TRUE) %>%
  mutate(pct = n / sum(n))

# A tibble: 50 × 3
   state     n    pct
   <chr> <int>  <dbl>
 1 HI       84 0.0267
 2 GA       83 0.0264
 3 DE       82 0.0261
 4 MN       79 0.0251
 5 VA       73 0.0232
 6 IA       72 0.0229
 7 NH       70 0.0223
 8 NM       70 0.0223
 9 SC       70 0.0223
10 KY       69 0.0220
# ℹ 40 more rows
…
